<?xml version="1.0" encoding="UTF-8" standalone="no"?>
<svg
   xmlns:dc="http://purl.org/dc/elements/1.1/"
   xmlns:cc="http://creativecommons.org/ns#"
   xmlns:rdf="http://www.w3.org/1999/02/22-rdf-syntax-ns#"
   xmlns:svg="http://www.w3.org/2000/svg"
   xmlns="http://www.w3.org/2000/svg"
   xmlns:sodipodi="http://sodipodi.sourceforge.net/DTD/sodipodi-0.dtd"
   xmlns:inkscape="http://www.inkscape.org/namespaces/inkscape"
   width="640"
   height="640"
   viewBox="0 0 169.33333 169.33334"
   version="1.1"
   id="svg8"
   sodipodi:docname="dome.svg"
   inkscape:version="1.0.1 (unknown)"
   inkscape:export-filename="/data/temporary/CCC/hsbe-map/tiles_png/custom/dome.png"
   inkscape:export-xdpi="96"
   inkscape:export-ydpi="96">
  <defs
     id="defs2" />
  <sodipodi:namedview
     id="base"
     pagecolor="#ffffff"
     bordercolor="#666666"
     borderopacity="1.0"
     inkscape:pageopacity="0.0"
     inkscape:pageshadow="2"
     inkscape:zoom="1.079122"
     inkscape:cx="285.8369"
     inkscape:cy="306.79514"
     inkscape:document-units="px"
     inkscape:current-layer="layer1"
     inkscape:document-rotation="0"
     showgrid="false"
     units="px"
     inkscape:pagecheckerboard="false"
     inkscape:window-width="1912"
     inkscape:window-height="1072"
     inkscape:window-x="1"
     inkscape:window-y="1"
     inkscape:window-maximized="0"
     objecttolerance="20"
     inkscape:snap-path-clip="false"
     inkscape:snap-path-mask="false"
     showguides="true"
     inkscape:guide-bbox="true">
    <sodipodi:guide
       position="0,169.33333"
       orientation="0,640"
       id="guide248" />
    <sodipodi:guide
       position="169.33333,169.33333"
       orientation="640,0"
       id="guide250" />
    <sodipodi:guide
       position="169.33333,0"
       orientation="0,-640"
       id="guide252" />
    <sodipodi:guide
       position="0,0"
       orientation="-640,0"
       id="guide254" />
  </sodipodi:namedview>
  <metadata
     id="metadata5">
    <rdf:RDF>
      <cc:Work
         rdf:about="">
        <dc:format>image/svg+xml</dc:format>
        <dc:type
           rdf:resource="http://purl.org/dc/dcmitype/StillImage" />
        <dc:title></dc:title>
      </cc:Work>
    </rdf:RDF>
  </metadata>
  <g
     inkscape:label="Layer 1"
     inkscape:groupmode="layer"
     id="layer1">
    <path
       id="rect256"
       style="fill:#000000;fill-opacity:1;stroke:none;stroke-width:9.99999;stroke-linecap:round;stroke-linejoin:round;stroke-opacity:0.995907"
       d="m 418.2793,25.564453 93.8164,45.085938 78.11328,86.171879 36.14063,95.47265 6.39258,83.20117 -22.13867,109.86914 -77.73243,97.96094 -40.42382,35.41016 L 430.875,611.74219 321.03711,634.5293 211.95703,614.01562 148.23047,578.40039 107.8418,545.95117 32.128906,445.73438 7.2578125,338.65234 18.185547,251.19531 51.328125,156.24414 127.31445,73.207031 219.40234,25.015625 219.50986,0 H 0 V 640 H 640 V 0 H 418.21691 Z"
       transform="scale(0.26458334)"
       sodipodi:nodetypes="cccccccccccccccccccccccccc" />
    <path
       sodipodi:type="star"
       style="fill:none;fill-opacity:0.301068;stroke:#000082;stroke-width:2.64583;stroke-linecap:round;stroke-linejoin:round;stroke-miterlimit:4;stroke-dasharray:none;stroke-opacity:0.99590665"
       id="path903"
       sodipodi:sides="3"
       sodipodi:cx="94.404922"
       sodipodi:cy="69.31842"
       sodipodi:r1="24.770046"
       sodipodi:r2="12.385023"
       sodipodi:arg1="0.50436714"
       sodipodi:arg2="1.5515647"
       inkscape:flatsided="true"
       inkscape:rounded="0"
       inkscape:randomized="0"
       inkscape:transform-center-x="-0.010472388"
       inkscape:transform-center-y="-5.9279745"
       transform="matrix(0.97961525,0.01797731,-0.01797731,0.97961525,-6.4079017,-4.5290913)"
       d="M 116.09061,81.288631 73.19557,82.113675 93.928583,44.552955 Z" />
    <path
       id="path908"
       style="fill:none;fill-opacity:0.301068;stroke:#000082;stroke-width:2.59233;stroke-linecap:round;stroke-linejoin:round;stroke-miterlimit:4;stroke-dasharray:none;stroke-opacity:0.99590665"
       inkscape:transform-center-x="-0.010472212"
       inkscape:transform-center-y="-5.9279753"
       d="M 63.819412,77.226575 42.766874,45.26083 84.805028,40.804245 Z"
       sodipodi:nodetypes="cccc" />
    <path
       id="path910"
       style="fill:none;fill-opacity:0.301068;stroke:#000082;stroke-width:2.59233;stroke-linecap:round;stroke-linejoin:round;stroke-miterlimit:4;stroke-dasharray:none;stroke-opacity:0.99590665"
       inkscape:transform-center-x="-0.010472212"
       inkscape:transform-center-y="-5.9279749"
       d="M 42.766874,45.26083 65.547765,16.586694 84.805028,40.804245 Z"
       sodipodi:nodetypes="cccc" />
    <path
       id="path912"
       style="fill:none;fill-opacity:0.301068;stroke:#000082;stroke-width:2.59233;stroke-linecap:round;stroke-linejoin:round;stroke-miterlimit:4;stroke-dasharray:none;stroke-opacity:0.99590665"
       inkscape:transform-center-x="-0.010471511"
       inkscape:transform-center-y="-5.927975"
       d="M 103.4778,16.472928 65.547765,16.586694 84.805028,40.804245 Z"
       sodipodi:nodetypes="cccc" />
    <path
       id="path914"
       style="fill:none;fill-opacity:0.301068;stroke:#000082;stroke-width:2.59233;stroke-linecap:round;stroke-linejoin:round;stroke-miterlimit:4;stroke-dasharray:none;stroke-opacity:0.99590665"
       inkscape:transform-center-x="-0.010473569"
       inkscape:transform-center-y="-5.927975"
       d="M 103.4778,16.472928 126.5231,45.200736 84.805028,40.804245 Z"
       sodipodi:nodetypes="cccc" />
    <path
       id="path916"
       style="fill:none;fill-opacity:0.301068;stroke:#000082;stroke-width:2.59233;stroke-linecap:round;stroke-linejoin:round;stroke-miterlimit:4;stroke-dasharray:none;stroke-opacity:0.99590665"
       inkscape:transform-center-x="-0.010473569"
       inkscape:transform-center-y="-5.9279751"
       d="M 105.85488,77.189487 126.5231,45.200736 84.805028,40.804245 Z"
       sodipodi:nodetypes="cccc" />
    <path
       id="path918"
       style="fill:none;fill-opacity:0.301068;stroke:#000082;stroke-width:2.59233;stroke-linecap:round;stroke-linejoin:round;stroke-miterlimit:4;stroke-dasharray:none;stroke-opacity:0.99590665"
       inkscape:transform-center-x="-0.01047348"
       inkscape:transform-center-y="-5.9279752"
       d="M 105.85488,77.189487 126.5231,45.200736 143.42582,84.736038 Z"
       sodipodi:nodetypes="cccc" />
    <path
       id="path920"
       style="fill:none;fill-opacity:0.301068;stroke:#000082;stroke-width:2.59233;stroke-linecap:round;stroke-linejoin:round;stroke-miterlimit:4;stroke-dasharray:none;stroke-opacity:0.99590665"
       inkscape:transform-center-x="-0.010471339"
       inkscape:transform-center-y="-5.9279752"
       d="M 155.18535,56.302357 126.5231,45.200736 143.42582,84.736038 Z"
       sodipodi:nodetypes="cccc" />
    <path
       id="path922"
       style="fill:none;fill-opacity:0.301068;stroke:#000082;stroke-width:2.59233;stroke-linecap:round;stroke-linejoin:round;stroke-miterlimit:4;stroke-dasharray:none;stroke-opacity:0.99590665"
       inkscape:transform-center-x="-0.010471339"
       inkscape:transform-center-y="-5.9279749"
       d="M 155.18535,56.302357 126.5231,45.200736 136.29178,24.839186 Z"
       sodipodi:nodetypes="cccc" />
    <path
       id="path924"
       style="fill:none;fill-opacity:0.301068;stroke:#000082;stroke-width:2.59233;stroke-linecap:round;stroke-linejoin:round;stroke-miterlimit:4;stroke-dasharray:none;stroke-opacity:0.99590665"
       inkscape:transform-center-x="-0.010469259"
       inkscape:transform-center-y="-5.927975"
       d="m 103.4778,16.472928 23.0453,28.727808 9.76868,-20.36155 z"
       sodipodi:nodetypes="cccc" />
    <path
       id="path926"
       style="fill:none;fill-opacity:0.301068;stroke:#000082;stroke-width:2.59233;stroke-linecap:round;stroke-linejoin:round;stroke-miterlimit:4;stroke-dasharray:none;stroke-opacity:0.99590665"
       inkscape:transform-center-x="-0.010469259"
       inkscape:transform-center-y="-5.9279747"
       d="m 103.4778,16.472928 7.1917,-9.7092568 25.62228,18.0755148 z"
       sodipodi:nodetypes="cccc" />
    <path
       id="path928"
       style="fill:none;fill-opacity:0.301068;stroke:#000082;stroke-width:2.59233;stroke-linecap:round;stroke-linejoin:round;stroke-miterlimit:4;stroke-dasharray:none;stroke-opacity:0.99590665"
       inkscape:transform-center-x="-0.010469686"
       inkscape:transform-center-y="-5.9279747"
       d="M 135.49197,18.692711 110.6695,6.7636712 136.29178,24.839186 Z"
       sodipodi:nodetypes="cccc" />
    <path
       id="path930"
       style="fill:none;fill-opacity:0.301068;stroke:#000082;stroke-width:2.59233;stroke-linecap:round;stroke-linejoin:round;stroke-miterlimit:4;stroke-dasharray:none;stroke-opacity:0.99590665"
       inkscape:transform-center-x="-0.0104727"
       inkscape:transform-center-y="-5.9279746"
       d="m 135.49197,18.692711 20.66752,22.799955 -19.86771,-16.65348 z"
       sodipodi:nodetypes="cccc" />
    <path
       id="path932"
       style="fill:none;fill-opacity:0.301068;stroke:#000082;stroke-width:2.59233;stroke-linecap:round;stroke-linejoin:round;stroke-miterlimit:4;stroke-dasharray:none;stroke-opacity:0.99590665"
       inkscape:transform-center-x="-0.010470486"
       inkscape:transform-center-y="-5.9279749"
       d="m 155.18535,56.302357 0.97414,-14.809691 -19.86771,-16.65348 z"
       sodipodi:nodetypes="cccc" />
    <path
       id="path934"
       style="fill:none;fill-opacity:0.301068;stroke:#000082;stroke-width:2.59233;stroke-linecap:round;stroke-linejoin:round;stroke-miterlimit:4;stroke-dasharray:none;stroke-opacity:0.99590665"
       inkscape:transform-center-x="-0.010470614"
       inkscape:transform-center-y="-5.9279746"
       d="m 155.18535,56.302357 0.97414,-14.809691 9.562,25.260142 z"
       sodipodi:nodetypes="cccc" />
    <path
       id="path936"
       style="fill:none;fill-opacity:0.301068;stroke:#000082;stroke-width:2.59233;stroke-linecap:round;stroke-linejoin:round;stroke-miterlimit:4;stroke-dasharray:none;stroke-opacity:0.99590665"
       inkscape:transform-center-x="-0.010470614"
       inkscape:transform-center-y="-5.927975"
       d="m 155.18535,56.302357 8.16961,33.532408 2.36653,-23.081957 z"
       sodipodi:nodetypes="cccc" />
    <path
       id="path938"
       style="fill:none;fill-opacity:0.301068;stroke:#000082;stroke-width:2.59233;stroke-linecap:round;stroke-linejoin:round;stroke-miterlimit:4;stroke-dasharray:none;stroke-opacity:0.99590665"
       inkscape:transform-center-x="-0.010470541"
       inkscape:transform-center-y="-5.9279748"
       d="m 167.41288,88.766751 -4.05792,1.068014 2.36653,-23.081957 z"
       sodipodi:nodetypes="cccc" />
    <path
       id="path940"
       style="fill:none;fill-opacity:0.301068;stroke:#000082;stroke-width:2.59233;stroke-linecap:round;stroke-linejoin:round;stroke-miterlimit:4;stroke-dasharray:none;stroke-opacity:0.99590665"
       inkscape:transform-center-x="-0.010468569"
       inkscape:transform-center-y="-5.9279775"
       d="m 167.41288,88.766751 -4.05792,1.068014 -1.79921,28.001685 z"
       sodipodi:nodetypes="cccc" />
    <path
       id="path942"
       style="fill:none;fill-opacity:0.301068;stroke:#000082;stroke-width:2.59233;stroke-linecap:round;stroke-linejoin:round;stroke-miterlimit:4;stroke-dasharray:none;stroke-opacity:0.99590665"
       inkscape:transform-center-x="-0.010473478"
       inkscape:transform-center-y="-5.9279762"
       d="m 147.41029,120.95117 15.94467,-31.116405 -1.79921,28.001685 z"
       sodipodi:nodetypes="cccc" />
    <path
       id="path944"
       style="fill:none;fill-opacity:0.301068;stroke:#000082;stroke-width:2.59233;stroke-linecap:round;stroke-linejoin:round;stroke-miterlimit:4;stroke-dasharray:none;stroke-opacity:0.99590665"
       inkscape:transform-center-x="-0.010472091"
       inkscape:transform-center-y="-5.9279763"
       d="M 147.41029,120.95117 163.35496,89.834765 143.42582,84.736038 Z"
       sodipodi:nodetypes="cccc" />
    <path
       id="path946"
       style="fill:none;fill-opacity:0.301068;stroke:#000082;stroke-width:2.59233;stroke-linecap:round;stroke-linejoin:round;stroke-miterlimit:4;stroke-dasharray:none;stroke-opacity:0.99590665"
       inkscape:transform-center-x="-0.010472091"
       inkscape:transform-center-y="-5.927975"
       d="m 155.18535,56.302357 8.16961,33.532408 -19.92914,-5.098727 z"
       sodipodi:nodetypes="cccc" />
    <path
       id="path948"
       style="fill:none;fill-opacity:0.301068;stroke:#000082;stroke-width:2.59233;stroke-linecap:round;stroke-linejoin:round;stroke-miterlimit:4;stroke-dasharray:none;stroke-opacity:0.99590665"
       inkscape:transform-center-x="-0.010475679"
       inkscape:transform-center-y="-5.9279763"
       d="m 147.41029,120.95117 -29.22407,-3.60195 25.2396,-32.613182 z"
       sodipodi:nodetypes="cccc" />
    <path
       id="path950"
       style="fill:none;fill-opacity:0.301068;stroke:#000082;stroke-width:2.59233;stroke-linecap:round;stroke-linejoin:round;stroke-miterlimit:4;stroke-dasharray:none;stroke-opacity:0.99590665"
       inkscape:transform-center-x="-0.010473274"
       inkscape:transform-center-y="-5.9279748"
       d="m 105.85487,77.189487 12.33135,40.159733 25.2396,-32.613182 z"
       sodipodi:nodetypes="cccc" />
    <path
       id="path952"
       style="fill:none;fill-opacity:0.301068;stroke:#000082;stroke-width:2.59233;stroke-linecap:round;stroke-linejoin:round;stroke-miterlimit:4;stroke-dasharray:none;stroke-opacity:0.99590665"
       inkscape:transform-center-x="-0.010474797"
       inkscape:transform-center-y="-5.9279748"
       d="m 105.85487,77.189487 12.33135,40.159733 -33.071258,-8.97155 z"
       sodipodi:nodetypes="cccc" />
    <path
       id="path954"
       style="fill:none;fill-opacity:0.301068;stroke:#000082;stroke-width:2.59233;stroke-linecap:round;stroke-linejoin:round;stroke-miterlimit:4;stroke-dasharray:none;stroke-opacity:0.99590665"
       inkscape:transform-center-x="-0.010473744"
       inkscape:transform-center-y="-5.927975"
       d="m 105.85487,77.189487 -42.035458,0.03709 21.29555,31.151093 z"
       sodipodi:nodetypes="cccc" />
    <path
       id="path956"
       style="fill:none;fill-opacity:0.301068;stroke:#000082;stroke-width:2.59233;stroke-linecap:round;stroke-linejoin:round;stroke-miterlimit:4;stroke-dasharray:none;stroke-opacity:0.99590665"
       inkscape:transform-center-x="-0.010472675"
       inkscape:transform-center-y="-5.9279775"
       d="M 50.626044,116.71876 63.819412,77.226575 85.114962,108.37767 Z"
       sodipodi:nodetypes="cccc" />
    <path
       id="path958"
       style="fill:none;fill-opacity:0.301068;stroke:#000082;stroke-width:2.59233;stroke-linecap:round;stroke-linejoin:round;stroke-miterlimit:4;stroke-dasharray:none;stroke-opacity:0.99590665"
       inkscape:transform-center-x="-0.010472536"
       inkscape:transform-center-y="-5.9279775"
       d="M 50.626044,116.71876 63.819412,77.226575 25.934062,84.79637 Z"
       sodipodi:nodetypes="cccc" />
    <path
       id="path960"
       style="fill:none;fill-opacity:0.301068;stroke:#000082;stroke-width:2.59233;stroke-linecap:round;stroke-linejoin:round;stroke-miterlimit:4;stroke-dasharray:none;stroke-opacity:0.99590665"
       inkscape:transform-center-x="-0.010472536"
       inkscape:transform-center-y="-5.927975"
       d="M 42.766874,45.26083 63.819412,77.226575 25.934062,84.79637 Z"
       sodipodi:nodetypes="cccc" />
    <path
       id="path962"
       style="fill:none;fill-opacity:0.301068;stroke:#000082;stroke-width:2.59233;stroke-linecap:round;stroke-linejoin:round;stroke-miterlimit:4;stroke-dasharray:none;stroke-opacity:0.99590665"
       inkscape:transform-center-x="-0.010472222"
       inkscape:transform-center-y="-5.927975"
       d="M 42.766874,45.26083 14.618826,56.073892 25.934062,84.79637 Z"
       sodipodi:nodetypes="cccc" />
    <path
       id="path964"
       style="fill:none;fill-opacity:0.301068;stroke:#000082;stroke-width:2.59233;stroke-linecap:round;stroke-linejoin:round;stroke-miterlimit:4;stroke-dasharray:none;stroke-opacity:0.99590665"
       inkscape:transform-center-x="-0.010472222"
       inkscape:transform-center-y="-5.9279749"
       d="M 42.766874,45.26083 14.618826,56.073892 33.30041,24.95747 Z"
       sodipodi:nodetypes="cccc" />
    <path
       id="path966"
       style="fill:none;fill-opacity:0.301068;stroke:#000082;stroke-width:2.59233;stroke-linecap:round;stroke-linejoin:round;stroke-miterlimit:4;stroke-dasharray:none;stroke-opacity:0.99590665"
       inkscape:transform-center-x="-0.010472309"
       inkscape:transform-center-y="-5.9279749"
       d="M 42.766874,45.26083 65.547765,16.586694 33.30041,24.95747 Z"
       sodipodi:nodetypes="cccc" />
    <path
       id="path968"
       style="fill:none;fill-opacity:0.301068;stroke:#000082;stroke-width:2.59233;stroke-linecap:round;stroke-linejoin:round;stroke-miterlimit:4;stroke-dasharray:none;stroke-opacity:0.99590665"
       inkscape:transform-center-x="-0.010472309"
       inkscape:transform-center-y="-5.9279746"
       d="M 58.050038,6.6187737 65.547765,16.586694 33.30041,24.95747 Z"
       sodipodi:nodetypes="cccc" />
    <path
       id="path980"
       style="fill:none;fill-opacity:0.301068;stroke:#000082;stroke-width:2.59233;stroke-linecap:round;stroke-linejoin:round;stroke-miterlimit:4;stroke-dasharray:none;stroke-opacity:0.99590665"
       inkscape:transform-center-x="-0.01047223"
       inkscape:transform-center-y="-5.9279746"
       d="M 58.050038,6.6187737 33.685528,19.369226 33.30041,24.95747 Z"
       sodipodi:nodetypes="cccc" />
    <path
       id="path982"
       style="fill:none;fill-opacity:0.301068;stroke:#000082;stroke-width:2.59233;stroke-linecap:round;stroke-linejoin:round;stroke-miterlimit:4;stroke-dasharray:none;stroke-opacity:0.99590665"
       inkscape:transform-center-x="-0.010472321"
       inkscape:transform-center-y="-5.9279751"
       d="M 13.580745,41.339684 33.685528,19.369226 33.30041,24.95747 Z"
       sodipodi:nodetypes="cccc" />
    <path
       id="path984"
       style="fill:none;fill-opacity:0.301068;stroke:#000082;stroke-width:2.59233;stroke-linecap:round;stroke-linejoin:round;stroke-miterlimit:4;stroke-dasharray:none;stroke-opacity:0.99590665"
       inkscape:transform-center-x="-0.010472264"
       inkscape:transform-center-y="-5.9279749"
       d="M 13.580745,41.339684 14.618826,56.073892 33.30041,24.95747 Z"
       sodipodi:nodetypes="cccc" />
    <path
       id="path986"
       style="fill:none;fill-opacity:0.301068;stroke:#000082;stroke-width:2.59233;stroke-linecap:round;stroke-linejoin:round;stroke-miterlimit:4;stroke-dasharray:none;stroke-opacity:0.99590665"
       inkscape:transform-center-x="-0.01047221"
       inkscape:transform-center-y="-5.9279751"
       d="M 13.580745,41.339684 14.618826,56.073892 4.811412,66.462198 Z"
       sodipodi:nodetypes="cccc" />
    <path
       id="path988"
       style="fill:none;fill-opacity:0.301068;stroke:#000082;stroke-width:2.59233;stroke-linecap:round;stroke-linejoin:round;stroke-miterlimit:4;stroke-dasharray:none;stroke-opacity:0.99590665"
       inkscape:transform-center-x="-0.01047221"
       inkscape:transform-center-y="-5.9279749"
       d="M 6.4247211,89.939781 14.618826,56.073892 4.811412,66.462198 Z"
       sodipodi:nodetypes="cccc" />
    <path
       id="path990"
       style="fill:none;fill-opacity:0.301068;stroke:#000082;stroke-width:2.59233;stroke-linecap:round;stroke-linejoin:round;stroke-miterlimit:4;stroke-dasharray:none;stroke-opacity:0.99590665"
       inkscape:transform-center-x="-0.010472517"
       inkscape:transform-center-y="-5.927975"
       d="M 6.4247211,89.939781 1.9204503,89.601688 4.811412,66.462198 Z"
       sodipodi:nodetypes="cccc" />
    <path
       id="path992"
       style="fill:none;fill-opacity:0.301068;stroke:#000082;stroke-width:2.59233;stroke-linecap:round;stroke-linejoin:round;stroke-miterlimit:4;stroke-dasharray:none;stroke-opacity:0.99590665"
       inkscape:transform-center-x="-0.010472165"
       inkscape:transform-center-y="-5.9279747"
       d="M 6.4247211,89.939781 1.9204503,89.601688 8.5008363,117.93372 Z"
       sodipodi:nodetypes="cccc" />
    <path
       id="path994"
       style="fill:none;fill-opacity:0.301068;stroke:#000082;stroke-width:2.59233;stroke-linecap:round;stroke-linejoin:round;stroke-miterlimit:4;stroke-dasharray:none;stroke-opacity:0.99590665"
       inkscape:transform-center-x="-0.010472429"
       inkscape:transform-center-y="-5.9279764"
       d="M 6.4247211,89.939781 21.857557,120.95518 8.5008363,117.93372 Z"
       sodipodi:nodetypes="cccc" />
    <path
       id="path996"
       style="fill:none;fill-opacity:0.301068;stroke:#000082;stroke-width:2.59233;stroke-linecap:round;stroke-linejoin:round;stroke-miterlimit:4;stroke-dasharray:none;stroke-opacity:0.99590665"
       inkscape:transform-center-x="-0.010472025"
       inkscape:transform-center-y="-5.9279749"
       d="M 28.533129,144.44981 21.857557,120.95518 8.5008363,117.93372 Z"
       sodipodi:nodetypes="cccc" />
    <path
       id="path998"
       style="fill:none;fill-opacity:0.301068;stroke:#000082;stroke-width:2.59233;stroke-linecap:round;stroke-linejoin:round;stroke-miterlimit:4;stroke-dasharray:none;stroke-opacity:0.99590665"
       inkscape:transform-center-x="-0.010472114"
       inkscape:transform-center-y="-5.9279772"
       d="m 28.533129,144.44981 -6.675572,-23.49463 28.880615,27.02655 z"
       sodipodi:nodetypes="cccc" />
    <path
       id="path1000"
       style="fill:none;fill-opacity:0.301068;stroke:#000082;stroke-width:2.59233;stroke-linecap:round;stroke-linejoin:round;stroke-miterlimit:4;stroke-dasharray:none;stroke-opacity:0.99590665"
       inkscape:transform-center-x="-0.010472183"
       inkscape:transform-center-y="-5.9279738"
       d="m 28.533129,144.44981 27.547123,18.00869 -5.34208,-14.47677 z"
       sodipodi:nodetypes="cccc" />
    <path
       id="path1002"
       style="fill:none;fill-opacity:0.301068;stroke:#000082;stroke-width:2.59233;stroke-linecap:round;stroke-linejoin:round;stroke-miterlimit:4;stroke-dasharray:none;stroke-opacity:0.99590665"
       inkscape:transform-center-x="-0.010472183"
       inkscape:transform-center-y="-5.9279738"
       d="M 28.533129,144.44981 56.080252,162.4585 39.219354,153.03492 Z"
       sodipodi:nodetypes="cccc" />
    <path
       id="path1006"
       style="fill:none;fill-opacity:0.301068;stroke:#000082;stroke-width:2.59233;stroke-linecap:round;stroke-linejoin:round;stroke-miterlimit:4;stroke-dasharray:none;stroke-opacity:0.99590665"
       inkscape:transform-center-x="-0.010472042"
       inkscape:transform-center-y="-5.9279744"
       d="m 84.708652,162.10164 -28.6284,0.35686 -5.34208,-14.47677 z"
       sodipodi:nodetypes="cccc" />
    <path
       id="path1008"
       style="fill:none;fill-opacity:0.301068;stroke:#000082;stroke-width:2.59233;stroke-linecap:round;stroke-linejoin:round;stroke-miterlimit:4;stroke-dasharray:none;stroke-opacity:0.99590665"
       inkscape:transform-center-x="-0.010472003"
       inkscape:transform-center-y="-5.9279778"
       d="m 84.708652,162.10164 -28.6284,0.35686 28.86072,5.42735 z"
       sodipodi:nodetypes="cccc" />
    <path
       id="path1010"
       style="fill:none;fill-opacity:0.301068;stroke:#000082;stroke-width:2.59233;stroke-linecap:round;stroke-linejoin:round;stroke-miterlimit:4;stroke-dasharray:none;stroke-opacity:0.99590665"
       inkscape:transform-center-x="-0.010471616"
       inkscape:transform-center-y="-5.9279772"
       d="m 84.708652,162.10164 29.293518,-0.2446 -29.061198,6.02881 z"
       sodipodi:nodetypes="cccc" />
    <path
       id="path1012"
       style="fill:none;fill-opacity:0.301068;stroke:#000082;stroke-width:2.59233;stroke-linecap:round;stroke-linejoin:round;stroke-miterlimit:4;stroke-dasharray:none;stroke-opacity:0.99590665"
       inkscape:transform-center-x="-0.010474692"
       inkscape:transform-center-y="-5.9279778"
       d="m 84.708652,162.10164 29.293518,-0.2446 4.99371,-13.76681 z"
       sodipodi:nodetypes="cccc" />
    <path
       id="path1014"
       style="fill:none;fill-opacity:0.301068;stroke:#000082;stroke-width:2.59233;stroke-linecap:round;stroke-linejoin:round;stroke-miterlimit:4;stroke-dasharray:none;stroke-opacity:0.99590665"
       inkscape:transform-center-x="-0.010469649"
       inkscape:transform-center-y="-5.9279755"
       d="m 140.9887,143.75511 -26.98653,18.10193 4.99371,-13.76681 z"
       sodipodi:nodetypes="cccc" />
    <path
       id="path1016"
       style="fill:none;fill-opacity:0.301068;stroke:#000082;stroke-width:2.59233;stroke-linecap:round;stroke-linejoin:round;stroke-miterlimit:4;stroke-dasharray:none;stroke-opacity:0.99590665"
       inkscape:transform-center-x="-0.010469649"
       inkscape:transform-center-y="-5.9279755"
       d="m 140.9887,143.75511 -26.98653,18.10193 16.29127,-8.73282 z"
       sodipodi:nodetypes="cccc" />
    <path
       id="path1018"
       style="fill:none;fill-opacity:0.301068;stroke:#000082;stroke-width:2.59233;stroke-linecap:round;stroke-linejoin:round;stroke-miterlimit:4;stroke-dasharray:none;stroke-opacity:0.99590665"
       inkscape:transform-center-x="-0.010475761"
       inkscape:transform-center-y="-5.9279776"
       d="m 140.9887,143.75511 6.42159,-22.80394 -28.41441,27.13906 z"
       sodipodi:nodetypes="cccc" />
    <path
       id="path1020"
       style="fill:none;fill-opacity:0.301068;stroke:#000082;stroke-width:2.59233;stroke-linecap:round;stroke-linejoin:round;stroke-miterlimit:4;stroke-dasharray:none;stroke-opacity:0.99590665"
       inkscape:transform-center-x="-0.010468469"
       inkscape:transform-center-y="-5.9279772"
       d="m 140.9887,143.75511 6.42159,-22.80394 14.14546,-3.11472 z"
       sodipodi:nodetypes="cccc" />
    <path
       id="path1022"
       style="fill:none;fill-opacity:0.301068;stroke:#000082;stroke-width:2.59233;stroke-linecap:round;stroke-linejoin:round;stroke-miterlimit:4;stroke-dasharray:none;stroke-opacity:0.99590665"
       inkscape:transform-center-x="-0.010475679"
       inkscape:transform-center-y="-5.9279762"
       d="m 118.18622,117.34922 29.22407,3.60195 -28.41441,27.13906 z"
       sodipodi:nodetypes="cccc" />
    <path
       id="path1024"
       style="fill:none;fill-opacity:0.301068;stroke:#000082;stroke-width:2.59233;stroke-linecap:round;stroke-linejoin:round;stroke-miterlimit:4;stroke-dasharray:none;stroke-opacity:0.99590665"
       inkscape:transform-center-x="-0.010474507"
       inkscape:transform-center-y="-5.9279762"
       d="m 118.18622,117.34922 -33.604856,22.14477 34.414516,8.59624 z"
       sodipodi:nodetypes="cccc" />
    <path
       id="path1026"
       style="fill:none;fill-opacity:0.301068;stroke:#000082;stroke-width:2.59233;stroke-linecap:round;stroke-linejoin:round;stroke-miterlimit:4;stroke-dasharray:none;stroke-opacity:0.99590665"
       inkscape:transform-center-x="-0.010474507"
       inkscape:transform-center-y="-5.9279768"
       d="m 84.708652,162.10164 -0.127288,-22.60765 34.414516,8.59624 z"
       sodipodi:nodetypes="cccc" />
    <path
       id="path1028"
       style="fill:none;fill-opacity:0.301068;stroke:#000082;stroke-width:2.59233;stroke-linecap:round;stroke-linejoin:round;stroke-miterlimit:4;stroke-dasharray:none;stroke-opacity:0.99590665"
       inkscape:transform-center-x="-0.010472042"
       inkscape:transform-center-y="-5.9279768"
       d="m 84.708652,162.10164 -0.127288,-22.60765 -33.843192,8.48774 z"
       sodipodi:nodetypes="cccc" />
    <path
       id="path1030"
       style="fill:none;fill-opacity:0.301068;stroke:#000082;stroke-width:2.59233;stroke-linecap:round;stroke-linejoin:round;stroke-miterlimit:4;stroke-dasharray:none;stroke-opacity:0.99590665"
       inkscape:transform-center-x="-0.010472303"
       inkscape:transform-center-y="-5.9279778"
       d="m 50.626044,116.71876 33.95532,22.77523 -33.843192,8.48774 z"
       sodipodi:nodetypes="cccc" />
    <path
       id="path1032"
       style="fill:none;fill-opacity:0.301068;stroke:#000082;stroke-width:2.59233;stroke-linecap:round;stroke-linejoin:round;stroke-miterlimit:4;stroke-dasharray:none;stroke-opacity:0.99590665"
       inkscape:transform-center-x="-0.010472675"
       inkscape:transform-center-y="-5.9279755"
       d="m 50.626044,116.71876 33.95532,22.77523 0.533598,-31.11632 z"
       sodipodi:nodetypes="cccc" />
    <path
       id="path1034"
       style="fill:none;fill-opacity:0.301068;stroke:#000082;stroke-width:2.59233;stroke-linecap:round;stroke-linejoin:round;stroke-miterlimit:4;stroke-dasharray:none;stroke-opacity:0.99590665"
       inkscape:transform-center-x="-0.010474425"
       inkscape:transform-center-y="-5.9279755"
       d="m 118.18622,117.34922 -33.604856,22.14477 0.533598,-31.11632 z"
       sodipodi:nodetypes="cccc" />
    <path
       id="path1038"
       style="fill:none;fill-opacity:0.301068;stroke:#000082;stroke-width:2.59233;stroke-linecap:round;stroke-linejoin:round;stroke-miterlimit:4;stroke-dasharray:none;stroke-opacity:0.99590665"
       inkscape:transform-center-x="-0.010472114"
       inkscape:transform-center-y="-5.9279778"
       d="m 50.626044,116.71876 -28.768487,4.23642 28.880615,27.02655 z"
       sodipodi:nodetypes="cccc" />
    <path
       id="path1040"
       style="fill:none;fill-opacity:0.301068;stroke:#000082;stroke-width:2.59233;stroke-linecap:round;stroke-linejoin:round;stroke-miterlimit:4;stroke-dasharray:none;stroke-opacity:0.99590665"
       inkscape:transform-center-x="-0.010472561"
       inkscape:transform-center-y="-5.9279766"
       d="m 50.626044,116.71876 -28.768487,4.23642 4.076505,-36.15881 z"
       sodipodi:nodetypes="cccc" />
    <path
       id="path1042"
       style="fill:none;fill-opacity:0.301068;stroke:#000082;stroke-width:2.59233;stroke-linecap:round;stroke-linejoin:round;stroke-miterlimit:4;stroke-dasharray:none;stroke-opacity:0.99590665"
       inkscape:transform-center-x="-0.010472506"
       inkscape:transform-center-y="-5.9279766"
       d="M 6.4247211,89.939781 21.857557,120.95518 25.934062,84.79637 Z"
       sodipodi:nodetypes="cccc" />
    <path
       id="path1044"
       style="fill:none;fill-opacity:0.301068;stroke:#000082;stroke-width:2.59233;stroke-linecap:round;stroke-linejoin:round;stroke-miterlimit:4;stroke-dasharray:none;stroke-opacity:0.99590665"
       inkscape:transform-center-x="-0.010472506"
       inkscape:transform-center-y="-5.9279749"
       d="M 6.4247211,89.939781 14.618826,56.073892 25.934062,84.79637 Z"
       sodipodi:nodetypes="cccc" />
  </g>
</svg>
